module gitlab.com/coolage73/goTest

go 1.16

require (
	github.com/alecthomas/template v0.0.0-20190718012654-fb15b899a751 // indirect
	github.com/alecthomas/units v0.0.0-20210208195552-ff826a37aa15 // indirect
	go.uber.org/zap v1.19.0 // indirect
	gopkg.in/alecthomas/kingpin.v2 v2.2.6 // indirect
	k8s.io/api v0.22.1 // indirect
	k8s.io/apimachinery v0.22.1 // indirect
	k8s.io/client-go v0.22.1 // indirect
)
